%YAML 1.1
%TAG !u! tag:unity3d.com,2011:
--- !u!114 &11400000
MonoBehaviour:
  m_ObjectHideFlags: 0
  m_PrefabParentObject: {fileID: 0}
  m_PrefabInternal: {fileID: 0}
  m_GameObject: {fileID: 0}
  m_Enabled: 1
  m_EditorHideFlags: 0
  m_Script: {fileID: 11500000, guid: e45a81089223bb446a8129161c027c35, type: 3}
  m_Name: DroneEasy
  m_EditorClassIdentifier: 
  Spawner: {fileID: 114882647038020918, guid: abe699d803515924dae1a6be0b6a4d21, type: 2}
  MinCycle: 0
  MaxCycle: 0
  MinSpeed: 0
  MaxSpeed: 0
