%YAML 1.1
%TAG !u! tag:unity3d.com,2011:
--- !u!114 &11400000
MonoBehaviour:
  m_ObjectHideFlags: 0
  m_PrefabParentObject: {fileID: 0}
  m_PrefabInternal: {fileID: 0}
  m_GameObject: {fileID: 0}
  m_Enabled: 1
  m_EditorHideFlags: 0
  m_Script: {fileID: 11500000, guid: c6a2ffe06e8735a4b9a2129c167c7a01, type: 3}
  m_Name: TestLevel
  m_EditorClassIdentifier: 
  EnemyName: Little Kim
  EnemyPower: 4425
  EnemyStartingPower: 5000
